<?xml version="1.0" encoding="utf-8"?>
<!-- Generator: Adobe Illustrator 14.0.0, SVG Export Plug-In . SVG Version: 6.00 Build 43363)  -->
<!DOCTYPE svg PUBLIC "-//W3C//DTD SVG 1.1//EN" "http://www.w3.org/Graphics/SVG/1.1/DTD/svg11.dtd">
<svg version="1.1"
	 id="svg2" xmlns:rdf="http://www.w3.org/1999/02/22-rdf-syntax-ns#" inkscape:export-ydpi="90" xmlns:cc="http://creativecommons.org/ns#" xmlns:inkscape="http://www.inkscape.org/namespaces/inkscape" sodipodi:docname="bleeds.svg" xmlns:svg="http://www.w3.org/2000/svg" sodipodi:version="0.32" xmlns:sodipodi="http://sodipodi.sourceforge.net/DTD/sodipodi-0.dtd" inkscape:export-xdpi="90" inkscape:version="0.46" xmlns:dc="http://purl.org/dc/elements/1.1/" inkscape:output_extension="org.inkscape.output.svg.inkscape" inkscape:export-filename="/home/yh/d6/sites/all/themes/rubiks/images/bleeds.png"
	 xmlns="http://www.w3.org/2000/svg" xmlns:xlink="http://www.w3.org/1999/xlink" x="0px" y="0px" width="20px" height="480px"
	 viewBox="0 0 20 480" enable-background="new 0 0 20 480" xml:space="preserve">
<defs>
	
	
		<inkscape:perspective  id="perspective10" inkscape:vp_x="0 : 526.18109 : 1" inkscape:vp_z="744.09448 : 526.18109 : 1" inkscape:persp3d-origin="372.04724 : 350.78739 : 1" inkscape:vp_y="0 : 1000 : 0" sodipodi:type="inkscape:persp3d">
		</inkscape:perspective>
</defs>
<sodipodi:namedview  id="base" showgrid="false" inkscape:cx="-5.75781" inkscape:pageshadow="2" inkscape:zoom="1" inkscape:cy="180.45457" inkscape:document-units="px" bordercolor="#666666" pagecolor="#ffffff" inkscape:current-layer="layer1" inkscape:pageopacity="0.0" borderopacity="1.0" gridtolerance="10000" guidetolerance="10" objecttolerance="10">
	<inkscape:grid  type="xygrid" id="grid2383" visible="true" enabled="true"></inkscape:grid>
</sodipodi:namedview>
<g id="layer1" inkscape:label="Layer 1" inkscape:groupmode="layer">
	
		<linearGradient id="rect2385_1_" gradientUnits="userSpaceOnUse" x1="7418" y1="290" x2="7418" y2="690.001" gradientTransform="matrix(0.05 0 0 1 -360.9001 -210)">
		<stop  offset="0" style="stop-color:#CAE1EA"/>
		<stop  offset="1" style="stop-color:#8CCCED"/>
	</linearGradient>
	<rect id="rect2385" y="80" fill="url(#rect2385_1_)" width="20" height="400"/>
	
		<linearGradient id="rect2386_1_" gradientUnits="userSpaceOnUse" x1="7418" y1="-435.9995" x2="7418" y2="-35.9995" gradientTransform="matrix(0.05 0 0 -0.1 -360.9001 36.3998)">
		<stop  offset="0" style="stop-color:#CAE1EA"/>
		<stop  offset="1" style="stop-color:#FFFFFF"/>
	</linearGradient>
	<rect id="rect2386" y="40" fill="url(#rect2386_1_)" width="20" height="40"/>
	
		<linearGradient id="rect3166_1_" gradientUnits="userSpaceOnUse" x1="-106.0005" y1="478" x2="-106.0005" y2="518" gradientTransform="matrix(1 0 0 -1 116 518)">
		<stop  offset="0" style="stop-color:#0075C4"/>
		<stop  offset="1" style="stop-color:#43B0EF"/>
	</linearGradient>
	<rect id="rect3166" fill="url(#rect3166_1_)" width="20" height="40"/>
</g>
</svg>
